{
"instructions_readme": "1) Open Chrome, 2) go to chrome://tracing, 3) click Load, 4) navigate to this file.",
"traceEvents":[
{ "cat":"", "pid":1, "tid":0, "ts":0, "ph":"M", "name":"process_name", "args": { "name":"tundra" } }
,{ "pid":1, "tid":0, "ts":1648826900398615, "dur":451, "ph":"X", "name": "DriverCheckDagSignatures",  "args": { "durationMS":0, "detail":"" }}
,{ "pid":1, "tid":0, "ts":1648826900399067, "dur":615, "ph":"X", "name": "DriverInitData",  "args": { "durationMS":1, "detail":"" }}
,{ "pid":1, "tid":0, "ts":1648826900399704, "dur":2, "ph":"X", "name": "Tundra",  "args": { "durationMS":0, "detail":"RemoveStaleOutputs" }}
,{ "pid":1, "tid":0, "ts":1648826900399707, "dur":0, "ph":"X", "name": "Tundra",  "args": { "durationMS":0, "detail":"PrepareNodes" }}
,{ "pid":1, "tid":0, "ts":1648826900399707, "dur":73, "ph":"X", "name": "Tundra",  "args": { "durationMS":0, "detail":"BuildQueueInit" }}
,{ "pid":1, "tid":0, "ts":1648826900400207, "dur":30, "ph":"X", "name": "JoinBuildThread",  "args": { "durationMS":0, "detail":"" }}
,{ "pid":1, "tid":0, "ts":1648826900400248, "dur":1, "ph":"X", "name": "JoinBuildThread",  "args": { "durationMS":0, "detail":"" }}
,{ "pid":1, "tid":0, "ts":1648826900400263, "dur":0, "ph":"X", "name": "JoinBuildThread",  "args": { "durationMS":0, "detail":"" }}
,{ "pid":1, "tid":0, "ts":1648826900400273, "dur":0, "ph":"X", "name": "JoinBuildThread",  "args": { "durationMS":0, "detail":"" }}
,{ "pid":1, "tid":0, "ts":1648826900400276, "dur":0, "ph":"X", "name": "SharedResourceDestroy",  "args": { "durationMS":0, "detail":"" }}
,{ "pid":1, "tid":0, "ts":1648826900400283, "dur":186, "ph":"X", "name": "Tundra",  "args": { "durationMS":0, "detail":"Write AllBuiltNodes" }}
,{ "pid":1, "tid":1, "ts":1648826900399735, "dur":57, "ph":"X", "name": "WaitingForWork", "cname":"thread_state_sleeping",  "args": { "durationMS":0, "detail":"" }}
,{ "pid":1, "tid":1, "ts":1648826900399803, "dur":278, "ph":"X", "name": "CheckInputSignature",  "args": { "durationMS":0, "detail":"Il2Cpp /home/43572148m/Imatges/UnityApps/Projects/lupa_energy_vr/Library/Il2cppBuildCache/Android/arm64-v8a/Native/arm64-v8a/libil2cpp.so" }}
,{ "pid":1, "tid":1, "ts":1648826900400192, "dur":0, "ph":"X", "name": "CheckInputSignature",  "args": { "durationMS":0, "detail":"all_tundra_nodes" }}
,{ "pid":1, "tid":1, "ts":1648826900400195, "dur":18, "ph":"X", "name": "WaitingForWork", "cname":"thread_state_sleeping",  "args": { "durationMS":0, "detail":"" }}
,{ "pid":1, "tid":1, "ts":1648826900400213, "dur":0, "ph":"X", "name": "Exiting",  "args": { "durationMS":0, "detail":"BuildLoop" }}
,{ "pid":1, "tid":2, "ts":1648826900399754, "dur":454, "ph":"X", "name": "WaitingForWork", "cname":"thread_state_sleeping",  "args": { "durationMS":0, "detail":"" }}
,{ "pid":1, "tid":2, "ts":1648826900400211, "dur":0, "ph":"X", "name": "Exiting",  "args": { "durationMS":0, "detail":"BuildLoop" }}
,{ "pid":1, "tid":3, "ts":1648826900399804, "dur":434, "ph":"X", "name": "WaitingForWork", "cname":"thread_state_sleeping",  "args": { "durationMS":0, "detail":"" }}
,{ "pid":1, "tid":3, "ts":1648826900400238, "dur":1, "ph":"X", "name": "Exiting",  "args": { "durationMS":0, "detail":"BuildLoop" }}
,{ "pid":1, "tid":4, "ts":1648826900399803, "dur":434, "ph":"X", "name": "WaitingForWork", "cname":"thread_state_sleeping",  "args": { "durationMS":0, "detail":"" }}
,{ "pid":1, "tid":4, "ts":1648826900400238, "dur":0, "ph":"X", "name": "Exiting",  "args": { "durationMS":0, "detail":"BuildLoop" }}

]
}
